[gd_resource type="Animation" load_steps=2 format=2]

[ext_resource path="res://PixelMob/Audio/167075__drminky__slime-land.tres" type="AudioStream" id=1]

[resource]
resource_name = "Walk"
length = 0.75
step = 0.0625
tracks/0/type = "value"
tracks/0/path = NodePath(".:frame")
tracks/0/interp = 0
tracks/0/loop_wrap = true
tracks/0/imported = false
tracks/0/enabled = true
tracks/0/keys = {
"times": PoolRealArray( 0, 0.0625, 0.125, 0.1875, 0.25, 0.3125, 0.4375, 0.5, 0.5625, 0.625, 0.6875 ),
"transitions": PoolRealArray( 1, 1, 1, 1, 1, 1, 1, 1, 1, 1, 1 ),
"update": 1,
"values": [ 1, 0, 1, 2, 3, 4, 5, 2, 1, 0, 1 ]
}
tracks/1/type = "audio"
tracks/1/path = NodePath("Walk")
tracks/1/interp = 1
tracks/1/loop_wrap = true
tracks/1/imported = false
tracks/1/enabled = true
tracks/1/keys = {
"clips": [ {
"end_offset": 0.0,
"start_offset": 0.0,
"stream": ExtResource( 1 )
} ],
"times": PoolRealArray( 0.5 )
}
